<?xml version="1.0" encoding="utf-8"?>
<!-- Generator: Adobe Illustrator 19.2.1, SVG Export Plug-In . SVG Version: 6.00 Build 0)  -->
<svg version="1.1" id="Camada_1" xmlns="http://www.w3.org/2000/svg" xmlns:xlink="http://www.w3.org/1999/xlink" x="0px" y="0px"
	 viewBox="0 0 171 171" style="enable-background:new 0 0 171 171;" xml:space="preserve">
<style type="text/css">
	.st0{fill:#FFFFFF;}
</style>
<path class="st0" d="M85.5,2c46,0,83.5,37.5,83.5,83.5S131.5,169,85.5,169S2,131.5,2,85.5S39.5,2,85.5,2 M85.5,0
	C38.3,0,0,38.3,0,85.5S38.3,171,85.5,171S171,132.7,171,85.5S132.7,0,85.5,0L85.5,0z"/>
<path class="st0" d="M85.5,8.1c42.7,0,77.4,34.7,77.4,77.4s-34.7,77.4-77.4,77.4S8.1,128.2,8.1,85.5S42.8,8.1,85.5,8.1 M85.5,7.1
	C42.2,7.1,7.1,42.2,7.1,85.5s35.1,78.4,78.4,78.4s78.4-35.1,78.4-78.4S128.8,7.1,85.5,7.1L85.5,7.1z"/>
<g>
	<path class="st0" d="M67.8,72.8c-2-0.5-4-0.9-6-1.1c0.2,3.8,15.3,7.3,18.9,8.1c6.7-3.3,10.7-5,9.9-8.1
		C85.3,73.7,79.7,75.6,67.8,72.8z"/>
	<path class="st0" d="M112.3,84.6c-1.5,0-2.9,0.3-4.2,0.8l-2.7-5.1c-1.1,0.5-2.1,1-3,1.7l2.6,5c-3,2.2-5,5.8-5,9.8
		c0,6.7,5.5,12.2,12.2,12.2c6.7,0,12.2-5.5,12.2-12.2C124.6,90,119.1,84.6,112.3,84.6z M112.3,105.1c-4.6,0-8.3-3.7-8.3-8.3
		c0-2.5,1.1-4.8,2.9-6.3l2,3.9c-0.5,0.7-0.8,1.5-0.8,2.4c0,2.3,1.9,4.1,4.1,4.1c2.3,0,4.1-1.9,4.1-4.1c0-2.3-1.9-4.1-4.1-4.1
		c-0.1,0-0.3,0-0.4,0l-2-3.8c0.8-0.2,1.6-0.4,2.4-0.4c4.6,0,8.3,3.7,8.3,8.3C120.6,101.4,116.9,105.1,112.3,105.1z M89,63.9
		c0-0.7,0.6-1.3,1.3-1.3l3.2,0c0.1-0.2,0.3-0.3,0.5-0.4c0.8-0.4,1.9-0.1,2.3,0.7l2,3.9c-0.1,0-0.1,0-0.2,0l-0.2,0
		c-1.1,0-2.1,0.2-3.2,0.5l-1.1-2.1l-3.4,0c0,0,0,0,0,0C89.6,65.3,89,64.7,89,63.9z M112.3,76.4c2.2,0,4.5,0.4,6.6,1.1
		c0.9,0.3,1.9-0.2,2.2-1.1c0.3-0.9-0.2-1.9-1.1-2.2c-2.5-0.8-5-1.3-7.7-1.3c-2.9,0-5.7,0.5-8.4,1.5c-1.3-2.8-2.9-5.2-5.9-5.1
		c-1.6,0-3.2,0.6-4.9,1.3l0.1,0.3c1.3,5-3.5,7.3-10.2,10.6l-1.9,0.9l-0.9-0.2c-13.7-2.8-20.8-6.3-21-10.5l0-0.5
		c-1.7-0.2-3.4-0.3-4.8-0.3h-7.1c0,1,3,2.6,6.1,4.1l-1.1,2.3l13.2,6.3c3.9,1.9,6.4,5.6,7.2,8L70,92.3c-1.8-4.5-6.2-7.8-11.4-7.8
		c-6.7,0-12.2,5.5-12.2,12.2c0,6.7,5.5,12.2,12.2,12.2c6.7,0,12.2-5.5,12.2-12.2c0-0.4,0-0.8-0.1-1.2l2.6-0.6
		c0.2,1.5,0.1,2.4,0.1,2.4s4.3,0,8.8,0c4.6,0,8.4-1.2,10.4-6.6c1.2-3.2,2.7-6,5-8.4C101.6,78.7,106.8,76.4,112.3,76.4z M67,96.8
		c0,4.6-3.7,8.3-8.3,8.3c-4.6,0-8.3-3.7-8.3-8.3c0-4.6,3.7-8.3,8.3-8.3c3.3,0,6.1,1.9,7.5,4.7l-4.3,1c-0.8-0.9-1.9-1.5-3.2-1.5
		c-2.3,0-4.1,1.9-4.1,4.1c0,2.3,1.9,4.1,4.1,4.1c2.1,0,3.7-1.5,4.1-3.5l4.2-1C66.9,96.6,67,96.7,67,96.8z"/>
</g>
</svg>
